WSU_Data_Analysis
…
Highest Inputs for Output

hospitals <- select(bea, "Industry", "Industry Description", "Hospitals")

top_inputs <- bea %>%
  select("Industry", "Industry Description", "Hospitals") %>%
  filter(!grepl("Hospitals", `Industry Description`)) %>%
  arrange(desc(Hospitals))

top_inputs$output <- top_inputs$Hospitals * 80952381
options(scipen = 999)

top_inputs

# A tibble: 70 × 4
   Industry `Industry Description`                              Hospitals output
   <chr>    <chr>                                                   <dbl>  <dbl>
 1 ORE      Other real estate                                      0.116  9.39e6
 2 561      Administrative and support services                    0.0862 6.98e6
 3 5412OP   Miscellaneous professional, scientific, and techni…    0.0646 5.23e6
 4 325      Chemical products                                      0.0513 4.15e6
 5 42       Wholesale trade                                        0.0452 3.66e6
 6 524      Insurance carriers and related activities              0.0340 2.75e6
 7 722      Food services and drinking places                      0.0275 2.22e6
 8 523      Securities, commodity contracts, and investments       0.0262 2.12e6
 9 339      Miscellaneous manufacturing                            0.0255 2.06e6
10 55       Management of companies and enterprises                0.0248 2.01e6
# ℹ 60 more rows
For example, Hospitals require $0.086 worth of inputs from Administrative and support services to produce $1.00 worth of output to final users. These inputs can come directly from other industries or indirectly through intermediate stages across the economy. With the multiplier, it can be understood that on average, hospitals spend $6,977,220.95 on Administrative and support services from their budget annually.

Lowest Inputs for Output

bottom_inputs <- bea %>%
  select(Industry, `Industry Description`, Hospitals) %>%
  filter(!grepl("Hospitals", `Industry Description`)) %>%
  arrange(Hospitals)

bottom_inputs$output <- bottom_inputs$Hospitals * 80952381
options(scipen = 999)

bottom_inputs

# A tibble: 70 × 4
   Industry `Industry Description`                      Hospitals  output
   <chr>    <chr>                                           <dbl>   <dbl>
 1 HS       Housing                                     0             0  
 2 GFGD     Federal general government (defense)        0             0  
 3 624      Social assistance                           0.0000002    16.2
 4 623      Nursing and residential care facilities     0.0000264  2137. 
 5 445      Food and beverage stores                    0.000064   5181. 
 6 525      Funds, trusts, and other financial vehicles 0.000074   5990. 
 7 61       Educational services                        0.000110   8937. 
 8 452      General merchandise stores                  0.000124  10006. 
 9 483      Water transportation                        0.000344  27872. 
10 213      Support activities for mining               0.000355  28730. 
# ℹ 60 more rows
…
